{
  "files": {
<<<<<<< HEAD:build/asset-manifest.json
    "main.css": "/static/css/main.411338f3.css",
    "main.js": "/static/js/main.ce8922a1.js",
=======
    "main.css": "/static/css/main.f6dc6d45.css",
    "main.js": "/static/js/main.e57dac7e.js",
>>>>>>> f38ffbc790227ff793b96c0b8db184e83884eb89:ios/App/App.xcarchive/Products/Applications/App.app/public/asset-manifest.json
    "static/js/3630.4494486f.chunk.js": "/static/js/3630.4494486f.chunk.js",
    "static/js/3107.f0045c9e.chunk.js": "/static/js/3107.f0045c9e.chunk.js",
    "static/js/7397.5f225b38.chunk.js": "/static/js/7397.5f225b38.chunk.js",
    "static/js/3127.6e52c4db.chunk.js": "/static/js/3127.6e52c4db.chunk.js",
    "static/js/2952.4d6fb6d4.chunk.js": "/static/js/2952.4d6fb6d4.chunk.js",
    "static/js/9988.a2451484.chunk.js": "/static/js/9988.a2451484.chunk.js",
    "static/js/1325.8b5ae0f6.chunk.js": "/static/js/1325.8b5ae0f6.chunk.js",
    "static/js/7368.4ef03238.chunk.js": "/static/js/7368.4ef03238.chunk.js",
    "static/js/9.2be23fbf.chunk.js": "/static/js/9.2be23fbf.chunk.js",
    "static/js/4525.dc2035b3.chunk.js": "/static/js/4525.dc2035b3.chunk.js",
    "static/js/1609.16694bad.chunk.js": "/static/js/1609.16694bad.chunk.js",
    "static/js/3305.af07af2e.chunk.js": "/static/js/3305.af07af2e.chunk.js",
    "static/js/2386.df80b46d.chunk.js": "/static/js/2386.df80b46d.chunk.js",
    "static/js/4369.34a64464.chunk.js": "/static/js/4369.34a64464.chunk.js",
    "static/js/7422.a04b2c24.chunk.js": "/static/js/7422.a04b2c24.chunk.js",
    "static/js/4478.f341c270.chunk.js": "/static/js/4478.f341c270.chunk.js",
    "static/js/1065.6747dcac.chunk.js": "/static/js/1065.6747dcac.chunk.js",
    "static/js/3888.1c0b48b3.chunk.js": "/static/js/3888.1c0b48b3.chunk.js",
    "static/js/2127.6919fc8e.chunk.js": "/static/js/2127.6919fc8e.chunk.js",
    "static/js/3131.b720f106.chunk.js": "/static/js/3131.b720f106.chunk.js",
    "static/js/4873.2d61b172.chunk.js": "/static/js/4873.2d61b172.chunk.js",
    "static/js/4638.571a4a81.chunk.js": "/static/js/4638.571a4a81.chunk.js",
    "static/js/439.ae557d39.chunk.js": "/static/js/439.ae557d39.chunk.js",
    "static/js/9850.922d932e.chunk.js": "/static/js/9850.922d932e.chunk.js",
    "static/js/7315.362edb98.chunk.js": "/static/js/7315.362edb98.chunk.js",
    "static/js/9295.74fac332.chunk.js": "/static/js/9295.74fac332.chunk.js",
    "static/js/9397.6e69ac70.chunk.js": "/static/js/9397.6e69ac70.chunk.js",
    "static/js/2346.fd1b4f8f.chunk.js": "/static/js/2346.fd1b4f8f.chunk.js",
    "static/js/9624.e3bb0704.chunk.js": "/static/js/9624.e3bb0704.chunk.js",
    "static/js/6893.3614a2bb.chunk.js": "/static/js/6893.3614a2bb.chunk.js",
    "static/js/1730.6104f30d.chunk.js": "/static/js/1730.6104f30d.chunk.js",
    "static/js/1985.7653d8ae.chunk.js": "/static/js/1985.7653d8ae.chunk.js",
    "static/js/13.faec2dcd.chunk.js": "/static/js/13.faec2dcd.chunk.js",
    "static/js/7220.21dc88c8.chunk.js": "/static/js/7220.21dc88c8.chunk.js",
    "static/js/6181.5fca868b.chunk.js": "/static/js/6181.5fca868b.chunk.js",
    "static/js/23.951ee7d8.chunk.js": "/static/js/23.951ee7d8.chunk.js",
    "static/js/4634.904ad66a.chunk.js": "/static/js/4634.904ad66a.chunk.js",
    "static/js/6906.4eeff58f.chunk.js": "/static/js/6906.4eeff58f.chunk.js",
    "static/js/4377.14f00906.chunk.js": "/static/js/4377.14f00906.chunk.js",
    "static/js/2682.ee05832f.chunk.js": "/static/js/2682.ee05832f.chunk.js",
    "static/js/5726.c196ea2b.chunk.js": "/static/js/5726.c196ea2b.chunk.js",
    "static/js/6106.ce74a6df.chunk.js": "/static/js/6106.ce74a6df.chunk.js",
    "static/js/2937.23e42660.chunk.js": "/static/js/2937.23e42660.chunk.js",
    "static/js/6129.a53c53f7.chunk.js": "/static/js/6129.a53c53f7.chunk.js",
    "static/js/3214.b32e80fe.chunk.js": "/static/js/3214.b32e80fe.chunk.js",
    "static/js/3839.18c8c24b.chunk.js": "/static/js/3839.18c8c24b.chunk.js",
    "static/js/3733.61b26581.chunk.js": "/static/js/3733.61b26581.chunk.js",
    "static/js/2992.ecfc3946.chunk.js": "/static/js/2992.ecfc3946.chunk.js",
    "static/js/6066.39712da7.chunk.js": "/static/js/6066.39712da7.chunk.js",
    "static/js/9773.54e44cf8.chunk.js": "/static/js/9773.54e44cf8.chunk.js",
    "static/js/321.8662def5.chunk.js": "/static/js/321.8662def5.chunk.js",
    "static/js/9678.7215c69e.chunk.js": "/static/js/9678.7215c69e.chunk.js",
    "static/js/1665.4fe222e6.chunk.js": "/static/js/1665.4fe222e6.chunk.js",
    "static/js/3482.82529552.chunk.js": "/static/js/3482.82529552.chunk.js",
    "static/js/4662.8f99472b.chunk.js": "/static/js/4662.8f99472b.chunk.js",
    "static/js/3848.26682f58.chunk.js": "/static/js/3848.26682f58.chunk.js",
    "static/js/1192.e01dc980.chunk.js": "/static/js/1192.e01dc980.chunk.js",
    "static/js/1262.6a2a84d5.chunk.js": "/static/js/1262.6a2a84d5.chunk.js",
    "static/js/9691.3f2e2611.chunk.js": "/static/js/9691.3f2e2611.chunk.js",
    "static/js/4917.f3004cd1.chunk.js": "/static/js/4917.f3004cd1.chunk.js",
    "static/js/5716.b11803df.chunk.js": "/static/js/5716.b11803df.chunk.js",
    "static/js/8720.286640c1.chunk.js": "/static/js/8720.286640c1.chunk.js",
    "static/js/3831.a933fa9f.chunk.js": "/static/js/3831.a933fa9f.chunk.js",
    "static/js/2782.b33caa84.chunk.js": "/static/js/2782.b33caa84.chunk.js",
    "static/js/9381.2a9cb24e.chunk.js": "/static/js/9381.2a9cb24e.chunk.js",
    "static/js/8855.485b95c1.chunk.js": "/static/js/8855.485b95c1.chunk.js",
    "static/js/738.d1d6e506.chunk.js": "/static/js/738.d1d6e506.chunk.js",
    "static/js/7372.b90bea6a.chunk.js": "/static/js/7372.b90bea6a.chunk.js",
    "static/js/5856.12e4daa3.chunk.js": "/static/js/5856.12e4daa3.chunk.js",
    "static/js/5022.e7038c8f.chunk.js": "/static/js/5022.e7038c8f.chunk.js",
    "static/js/6851.890e17d3.chunk.js": "/static/js/6851.890e17d3.chunk.js",
    "static/js/5215.19759e57.chunk.js": "/static/js/5215.19759e57.chunk.js",
    "static/js/8841.678f566b.chunk.js": "/static/js/8841.678f566b.chunk.js",
    "static/js/1186.524211a3.chunk.js": "/static/js/1186.524211a3.chunk.js",
    "static/js/1335.c0fcafc2.chunk.js": "/static/js/1335.c0fcafc2.chunk.js",
    "static/js/9377.b5f9cc61.chunk.js": "/static/js/9377.b5f9cc61.chunk.js",
    "static/js/471.3135f859.chunk.js": "/static/js/471.3135f859.chunk.js",
    "static/media/FSJoeyPro-Medium.otf": "/static/media/FSJoeyPro-Medium.b92e09ce1b486b367873.otf",
    "service-worker.js": "/service-worker.js",
    "static/media/bpg_nino_mtavruli_bold.ttf": "/static/media/bpg_nino_mtavruli_bold.43eacc71b8fa4cfe138c.ttf",
    "static/media/EU-LOGO-WHITE.png": "/static/media/EU-LOGO-WHITE.05cd2fd8b6537460c0e7.png",
    "static/media/swiper.less": "/static/media/swiper.eda542a1565bfd1955b3.less",
    "index.html": "/index.html",
<<<<<<< HEAD:build/asset-manifest.json
    "static/media/gps.svg": "/static/media/gps.8e3055bc978860ebe94c2ef1cc0f5851.svg",
    "main.411338f3.css.map": "/static/css/main.411338f3.css.map",
    "main.ce8922a1.js.map": "/static/js/main.ce8922a1.js.map",
=======
    "static/media/gps.svg": "/static/media/gps.f21cc38699767f30283e6ac181f3c00d.svg",
    "main.f6dc6d45.css.map": "/static/css/main.f6dc6d45.css.map",
    "main.e57dac7e.js.map": "/static/js/main.e57dac7e.js.map",
>>>>>>> f38ffbc790227ff793b96c0b8db184e83884eb89:ios/App/App.xcarchive/Products/Applications/App.app/public/asset-manifest.json
    "3630.4494486f.chunk.js.map": "/static/js/3630.4494486f.chunk.js.map",
    "3107.f0045c9e.chunk.js.map": "/static/js/3107.f0045c9e.chunk.js.map",
    "7397.5f225b38.chunk.js.map": "/static/js/7397.5f225b38.chunk.js.map",
    "3127.6e52c4db.chunk.js.map": "/static/js/3127.6e52c4db.chunk.js.map",
    "2952.4d6fb6d4.chunk.js.map": "/static/js/2952.4d6fb6d4.chunk.js.map",
    "9988.a2451484.chunk.js.map": "/static/js/9988.a2451484.chunk.js.map",
    "1325.8b5ae0f6.chunk.js.map": "/static/js/1325.8b5ae0f6.chunk.js.map",
    "7368.4ef03238.chunk.js.map": "/static/js/7368.4ef03238.chunk.js.map",
    "9.2be23fbf.chunk.js.map": "/static/js/9.2be23fbf.chunk.js.map",
    "4525.dc2035b3.chunk.js.map": "/static/js/4525.dc2035b3.chunk.js.map",
    "1609.16694bad.chunk.js.map": "/static/js/1609.16694bad.chunk.js.map",
    "3305.af07af2e.chunk.js.map": "/static/js/3305.af07af2e.chunk.js.map",
    "2386.df80b46d.chunk.js.map": "/static/js/2386.df80b46d.chunk.js.map",
    "4369.34a64464.chunk.js.map": "/static/js/4369.34a64464.chunk.js.map",
    "7422.a04b2c24.chunk.js.map": "/static/js/7422.a04b2c24.chunk.js.map",
    "4478.f341c270.chunk.js.map": "/static/js/4478.f341c270.chunk.js.map",
    "1065.6747dcac.chunk.js.map": "/static/js/1065.6747dcac.chunk.js.map",
    "3888.1c0b48b3.chunk.js.map": "/static/js/3888.1c0b48b3.chunk.js.map",
    "2127.6919fc8e.chunk.js.map": "/static/js/2127.6919fc8e.chunk.js.map",
    "3131.b720f106.chunk.js.map": "/static/js/3131.b720f106.chunk.js.map",
    "4873.2d61b172.chunk.js.map": "/static/js/4873.2d61b172.chunk.js.map",
    "4638.571a4a81.chunk.js.map": "/static/js/4638.571a4a81.chunk.js.map",
    "439.ae557d39.chunk.js.map": "/static/js/439.ae557d39.chunk.js.map",
    "9850.922d932e.chunk.js.map": "/static/js/9850.922d932e.chunk.js.map",
    "7315.362edb98.chunk.js.map": "/static/js/7315.362edb98.chunk.js.map",
    "9295.74fac332.chunk.js.map": "/static/js/9295.74fac332.chunk.js.map",
    "9397.6e69ac70.chunk.js.map": "/static/js/9397.6e69ac70.chunk.js.map",
    "2346.fd1b4f8f.chunk.js.map": "/static/js/2346.fd1b4f8f.chunk.js.map",
    "9624.e3bb0704.chunk.js.map": "/static/js/9624.e3bb0704.chunk.js.map",
    "6893.3614a2bb.chunk.js.map": "/static/js/6893.3614a2bb.chunk.js.map",
    "1730.6104f30d.chunk.js.map": "/static/js/1730.6104f30d.chunk.js.map",
    "1985.7653d8ae.chunk.js.map": "/static/js/1985.7653d8ae.chunk.js.map",
    "13.faec2dcd.chunk.js.map": "/static/js/13.faec2dcd.chunk.js.map",
    "7220.21dc88c8.chunk.js.map": "/static/js/7220.21dc88c8.chunk.js.map",
    "6181.5fca868b.chunk.js.map": "/static/js/6181.5fca868b.chunk.js.map",
    "23.951ee7d8.chunk.js.map": "/static/js/23.951ee7d8.chunk.js.map",
    "4634.904ad66a.chunk.js.map": "/static/js/4634.904ad66a.chunk.js.map",
    "6906.4eeff58f.chunk.js.map": "/static/js/6906.4eeff58f.chunk.js.map",
    "4377.14f00906.chunk.js.map": "/static/js/4377.14f00906.chunk.js.map",
    "2682.ee05832f.chunk.js.map": "/static/js/2682.ee05832f.chunk.js.map",
    "5726.c196ea2b.chunk.js.map": "/static/js/5726.c196ea2b.chunk.js.map",
    "6106.ce74a6df.chunk.js.map": "/static/js/6106.ce74a6df.chunk.js.map",
    "2937.23e42660.chunk.js.map": "/static/js/2937.23e42660.chunk.js.map",
    "6129.a53c53f7.chunk.js.map": "/static/js/6129.a53c53f7.chunk.js.map",
    "3214.b32e80fe.chunk.js.map": "/static/js/3214.b32e80fe.chunk.js.map",
    "3839.18c8c24b.chunk.js.map": "/static/js/3839.18c8c24b.chunk.js.map",
    "3733.61b26581.chunk.js.map": "/static/js/3733.61b26581.chunk.js.map",
    "2992.ecfc3946.chunk.js.map": "/static/js/2992.ecfc3946.chunk.js.map",
    "6066.39712da7.chunk.js.map": "/static/js/6066.39712da7.chunk.js.map",
    "9773.54e44cf8.chunk.js.map": "/static/js/9773.54e44cf8.chunk.js.map",
    "321.8662def5.chunk.js.map": "/static/js/321.8662def5.chunk.js.map",
    "9678.7215c69e.chunk.js.map": "/static/js/9678.7215c69e.chunk.js.map",
    "1665.4fe222e6.chunk.js.map": "/static/js/1665.4fe222e6.chunk.js.map",
    "3482.82529552.chunk.js.map": "/static/js/3482.82529552.chunk.js.map",
    "4662.8f99472b.chunk.js.map": "/static/js/4662.8f99472b.chunk.js.map",
    "3848.26682f58.chunk.js.map": "/static/js/3848.26682f58.chunk.js.map",
    "1192.e01dc980.chunk.js.map": "/static/js/1192.e01dc980.chunk.js.map",
    "1262.6a2a84d5.chunk.js.map": "/static/js/1262.6a2a84d5.chunk.js.map",
    "9691.3f2e2611.chunk.js.map": "/static/js/9691.3f2e2611.chunk.js.map",
    "4917.f3004cd1.chunk.js.map": "/static/js/4917.f3004cd1.chunk.js.map",
    "5716.b11803df.chunk.js.map": "/static/js/5716.b11803df.chunk.js.map",
    "8720.286640c1.chunk.js.map": "/static/js/8720.286640c1.chunk.js.map",
    "3831.a933fa9f.chunk.js.map": "/static/js/3831.a933fa9f.chunk.js.map",
    "2782.b33caa84.chunk.js.map": "/static/js/2782.b33caa84.chunk.js.map",
    "9381.2a9cb24e.chunk.js.map": "/static/js/9381.2a9cb24e.chunk.js.map",
    "8855.485b95c1.chunk.js.map": "/static/js/8855.485b95c1.chunk.js.map",
    "738.d1d6e506.chunk.js.map": "/static/js/738.d1d6e506.chunk.js.map",
    "7372.b90bea6a.chunk.js.map": "/static/js/7372.b90bea6a.chunk.js.map",
    "5856.12e4daa3.chunk.js.map": "/static/js/5856.12e4daa3.chunk.js.map",
    "5022.e7038c8f.chunk.js.map": "/static/js/5022.e7038c8f.chunk.js.map",
    "6851.890e17d3.chunk.js.map": "/static/js/6851.890e17d3.chunk.js.map",
    "5215.19759e57.chunk.js.map": "/static/js/5215.19759e57.chunk.js.map",
    "8841.678f566b.chunk.js.map": "/static/js/8841.678f566b.chunk.js.map",
    "1186.524211a3.chunk.js.map": "/static/js/1186.524211a3.chunk.js.map",
    "1335.c0fcafc2.chunk.js.map": "/static/js/1335.c0fcafc2.chunk.js.map",
    "9377.b5f9cc61.chunk.js.map": "/static/js/9377.b5f9cc61.chunk.js.map",
    "471.3135f859.chunk.js.map": "/static/js/471.3135f859.chunk.js.map"
  },
  "entrypoints": [
<<<<<<< HEAD:build/asset-manifest.json
    "static/css/main.411338f3.css",
    "static/js/main.ce8922a1.js"
=======
    "static/css/main.f6dc6d45.css",
    "static/js/main.e57dac7e.js"
>>>>>>> f38ffbc790227ff793b96c0b8db184e83884eb89:ios/App/App.xcarchive/Products/Applications/App.app/public/asset-manifest.json
  ]
}